<?xml version="1.0" encoding="utf-8"?>
<!-- Generator: Adobe Illustrator 21.1.0, SVG Export Plug-In . SVG Version: 6.00 Build 0)  -->
<svg version="1.1" id="Layer_1" xmlns="http://www.w3.org/2000/svg" xmlns:xlink="http://www.w3.org/1999/xlink" x="0px" y="0px"
	 viewBox="0 0 64.4 28.8" style="enable-background:new 0 0 64.4 28.8;" xml:space="preserve">
<style type="text/css">
	.st0{fill:#82BC41;}
</style>
<g>
	<path class="st0" d="M23.3,4.5c-0.7,0.1-6.2-5.2-14.6-2c13.6,2.7,12.6,7.3,14.9,7.5C26,10,25.4,4.2,40,2.5
		C31.8-1.2,24.1,4.4,23.3,4.5z"/>
	<path class="st0" d="M12.9,21.6c0,0-6.5-3.5-12.5,0c10.4,0.8,11.5,6.2,13.9,5.8c2.3-0.4-1.2-1,8.7-12.3
		C15.6,18.1,12.9,21.6,12.9,21.6z"/>
	<path class="st0" d="M49.6,22.9c3-0.2,0.9-3.6,14.2-5.5c-6.9-2.6-15.1,0.9-15.1,0.9C42.5,13.8,31.3,16,32,16
		C46.2,17.6,46.6,23.1,49.6,22.9z"/>
</g>
</svg>
